<?xml version="1.0" encoding="UTF-8" standalone="no"?>
<!DOCTYPE svg PUBLIC "-//W3C//DTD SVG 1.1//EN" "http://www.w3.org/Graphics/SVG/1.1/DTD/svg11.dtd">
<svg width="100%" height="100%" viewBox="0 0 800 600" version="1.1" xmlns="http://www.w3.org/2000/svg" xmlns:xlink="http://www.w3.org/1999/xlink" xml:space="preserve" xmlns:serif="http://www.serif.com/" style="fill-rule:evenodd;clip-rule:evenodd;stroke-linejoin:round;stroke-miterlimit:2;">
    <path d="M800,0L0,0L0,600L800,600L800,0ZM739,99.24C739,78.135 721.865,61 700.76,61L99.24,61C78.135,61 61,78.135 61,99.24L61,500.76C61,521.865 78.135,539 99.24,539L700.76,539C721.865,539 739,521.865 739,500.76L739,99.24Z" style="fill:rgb(135,135,135, 0.6);"/>
</svg>
